%YAML 1.1
%TAG !u! tag:unity3d.com,2011:
--- !u!29 &1
OcclusionCullingSettings:
  m_ObjectHideFlags: 0
  serializedVersion: 2
  m_OcclusionBakeSettings:
    smallestOccluder: 5
    smallestHole: 0.25
    backfaceThreshold: 100
  m_SceneGUID: 00000000000000000000000000000000
  m_OcclusionCullingData: {fileID: 0}
--- !u!104 &2
RenderSettings:
  m_ObjectHideFlags: 0
  serializedVersion: 8
  m_Fog: 0
  m_FogColor: {r: 0.5, g: 0.5, b: 0.5, a: 1}
  m_FogMode: 3
  m_FogDensity: 0.01
  m_LinearFogStart: 0
  m_LinearFogEnd: 300
  m_AmbientSkyColor: {r: 0.2, g: 0.2, b: 0.2, a: 1}
  m_AmbientEquatorColor: {r: 0.2, g: 0.2, b: 0.2, a: 1}
  m_AmbientGroundColor: {r: 0.2, g: 0.2, b: 0.2, a: 1}
  m_AmbientIntensity: 1
  m_AmbientMode: 3
  m_SubtractiveShadowColor: {r: 0.42, g: 0.478, b: 0.627, a: 1}
  m_SkyboxMaterial: {fileID: 0}
  m_HaloStrength: 0.5
  m_FlareStrength: 1
  m_FlareFadeSpeed: 3
  m_HaloTexture: {fileID: 0}
  m_SpotCookie: {fileID: 10001, guid: 0000000000000000e000000000000000, type: 0}
  m_DefaultReflectionMode: 0
  m_DefaultReflectionResolution: 128
  m_ReflectionBounces: 1
  m_ReflectionIntensity: 1
  m_CustomReflection: {fileID: 0}
  m_Sun: {fileID: 0}
  m_IndirectSpecularColor: {r: 0, g: 0, b: 0, a: 1}
--- !u!157 &4
LightmapSettings:
  m_ObjectHideFlags: 0
  serializedVersion: 11
  m_GIWorkflowMode: 1
  m_GISettings:
    serializedVersion: 2
    m_BounceScale: 1
    m_IndirectOutputScale: 1
    m_AlbedoBoost: 1
    m_TemporalCoherenceThreshold: 1
    m_EnvironmentLightingMode: 0
    m_EnableBakedLightmaps: 1
    m_EnableRealtimeLightmaps: 0
  m_LightmapEditorSettings:
    serializedVersion: 9
    m_Resolution: 1
    m_BakeResolution: 50
    m_TextureWidth: 1024
    m_TextureHeight: 1024
    m_AO: 1
    m_AOMaxDistance: 1
    m_CompAOExponent: 1
    m_CompAOExponentDirect: 0
    m_Padding: 2
    m_LightmapParameters: {fileID: 0}
    m_LightmapsBakeMode: 1
    m_TextureCompression: 0
    m_FinalGather: 0
    m_FinalGatherFiltering: 1
    m_FinalGatherRayCount: 256
    m_ReflectionCompression: 2
    m_MixedBakeMode: 1
    m_BakeBackend: 0
    m_PVRSampling: 1
    m_PVRDirectSampleCount: 32
    m_PVRSampleCount: 500
    m_PVRBounces: 2
    m_PVRFilterTypeDirect: 0
    m_PVRFilterTypeIndirect: 0
    m_PVRFilterTypeAO: 0
    m_PVRFilteringMode: 0
    m_PVRCulling: 1
    m_PVRFilteringGaussRadiusDirect: 1
    m_PVRFilteringGaussRadiusIndirect: 5
    m_PVRFilteringGaussRadiusAO: 2
    m_PVRFilteringAtrousPositionSigmaDirect: 0.5
    m_PVRFilteringAtrousPositionSigmaIndirect: 2
    m_PVRFilteringAtrousPositionSigmaAO: 1
  m_LightingDataAsset: {fileID: 0}
  m_UseShadowmask: 0
--- !u!196 &5
NavMeshSettings:
  serializedVersion: 2
  m_ObjectHideFlags: 0
  m_BuildSettings:
    serializedVersion: 2
    agentTypeID: 0
    agentRadius: 0.5
    agentHeight: 2
    agentSlope: 45
    agentClimb: 0.4
    ledgeDropHeight: 0
    maxJumpAcrossDistance: 0
    minRegionArea: 2
    manualCellSize: 0
    cellSize: 0.16666666
    manualTileSize: 0
    tileSize: 256
    accuratePlacement: 0
    debug:
      m_Flags: 0
  m_NavMeshData: {fileID: 0}
--- !u!1 &78033
GameObject:
  m_ObjectHideFlags: 0
  m_PrefabParentObject: {fileID: 0}
  m_PrefabInternal: {fileID: 0}
  serializedVersion: 5
  m_Component:
  - component: {fileID: 78034}
  m_Layer: 0
  m_Name: MuzzleFlashPoint
  m_TagString: Untagged
  m_Icon: {fileID: 0}
  m_NavMeshLayer: 0
  m_StaticEditorFlags: 0
  m_IsActive: 1
--- !u!4 &78034
Transform:
  m_ObjectHideFlags: 0
  m_PrefabParentObject: {fileID: 0}
  m_PrefabInternal: {fileID: 0}
  m_GameObject: {fileID: 78033}
  m_LocalRotation: {x: 0.5, y: 0.5, z: 0.5, w: 0.5}
  m_LocalPosition: {x: 0.15599996, y: 0.29700017, z: 0.85200036}
  m_LocalScale: {x: 1, y: 1, z: 1}
  m_Children: []
  m_Father: {fileID: 1237641368}
  m_RootOrder: 0
  m_LocalEulerAnglesHint: {x: 0, y: 0, z: 0}
--- !u!1 &51790519
GameObject:
  m_ObjectHideFlags: 0
  m_PrefabParentObject: {fileID: 0}
  m_PrefabInternal: {fileID: 0}
  serializedVersion: 5
  m_Component:
  - component: {fileID: 51790521}
  - component: {fileID: 51790520}
  m_Layer: 0
  m_Name: GUI
  m_TagString: Untagged
  m_Icon: {fileID: 0}
  m_NavMeshLayer: 0
  m_StaticEditorFlags: 0
  m_IsActive: 1
--- !u!114 &51790520
MonoBehaviour:
  m_ObjectHideFlags: 0
  m_PrefabParentObject: {fileID: 0}
  m_PrefabInternal: {fileID: 0}
  m_GameObject: {fileID: 51790519}
  m_Enabled: 1
  m_EditorHideFlags: 0
  m_Script: {fileID: 11500000, guid: 7f44a7ad42765c94b896425517325f1a, type: 3}
  m_Name: 
  m_EditorClassIdentifier: 
  Prefabs:
  - {fileID: 180772, guid: 52aa1f2e1567b6e47b50df0d054982a7, type: 2}
  - {fileID: 108086, guid: e4ed01af280d76248a9d0e72030c40c6, type: 2}
  - {fileID: 186004, guid: 1fad06db51ffb86458cb3de2b4fc05c2, type: 2}
  - {fileID: 196912, guid: 881329b761025854294ebdddc9a44083, type: 2}
  - {fileID: 129456, guid: 92422eb8369387a41a9a6259935757ac, type: 2}
  - {fileID: 151174, guid: e70de6a15623744499bf326c13e310f0, type: 2}
  - {fileID: 178032, guid: 70293ccb9b36ad84ebb90509a675fc1e, type: 2}
  - {fileID: 142740, guid: f9c851a5a12292f4d9a24acc3899803b, type: 2}
  - {fileID: 120918, guid: 8f2fb118e4280164e90e13f92ad21c28, type: 2}
  - {fileID: 138412, guid: 4fbc0156e9dd2ab41a17e56a2f515d2a, type: 2}
  - {fileID: 124018, guid: 91cae02dda1c67243ae1078e3126fbb4, type: 2}
  - {fileID: 146992, guid: 918360de9ec7bcd4b9fe9af5a92943e1, type: 2}
  - {fileID: 153266, guid: b02b25a31ec2a3f4ead8ea41bf396496, type: 2}
  - {fileID: 160582, guid: cc197906c4c929c44bc19b69860ac324, type: 2}
  - {fileID: 183908, guid: 343161301148bef499a3a86972ea360c, type: 2}
  - {fileID: 110062, guid: 25455ee4c0eb22942b1aeef6f21e61d4, type: 2}
  - {fileID: 179846, guid: c5620bbfb5c68fd47a5db011426cd929, type: 2}
  - {fileID: 141106, guid: 9ccded8c33ca1dd43a7b78162928b968, type: 2}
  - {fileID: 136518, guid: a3c54d0c03b60dd4ba9fefa93a89780f, type: 2}
  - {fileID: 161002, guid: d4ef0a1d454dc284ba8d539d62501249, type: 2}
  muzzleFlashPoint: {fileID: 78034}
  Gun: {fileID: 412172820}
  reactivateTime: 4
  Sun: {fileID: 165033934}
--- !u!4 &51790521
Transform:
  m_ObjectHideFlags: 0
  m_PrefabParentObject: {fileID: 0}
  m_PrefabInternal: {fileID: 0}
  m_GameObject: {fileID: 51790519}
  m_LocalRotation: {x: 0.7071068, y: 0, z: 0, w: -0.7071068}
  m_LocalPosition: {x: 0, y: 0.1, z: 0}
  m_LocalScale: {x: 1, y: 1, z: 1}
  m_Children:
  - {fileID: 1237641368}
  m_Father: {fileID: 0}
  m_RootOrder: 3
  m_LocalEulerAnglesHint: {x: 0, y: 0, z: 0}
--- !u!1 &165033933
GameObject:
  m_ObjectHideFlags: 0
  m_PrefabParentObject: {fileID: 0}
  m_PrefabInternal: {fileID: 0}
  serializedVersion: 5
  m_Component:
  - component: {fileID: 165033935}
  - component: {fileID: 165033934}
  m_Layer: 0
  m_Name: Directional light
  m_TagString: Untagged
  m_Icon: {fileID: 0}
  m_NavMeshLayer: 0
  m_StaticEditorFlags: 0
  m_IsActive: 1
--- !u!108 &165033934
Light:
  m_ObjectHideFlags: 0
  m_PrefabParentObject: {fileID: 0}
  m_PrefabInternal: {fileID: 0}
  m_GameObject: {fileID: 165033933}
  m_Enabled: 1
  serializedVersion: 8
  m_Type: 1
  m_Color: {r: 1, g: 1, b: 1, a: 1}
  m_Intensity: 1
  m_Range: 10
  m_SpotAngle: 30
  m_CookieSize: 10
  m_Shadows:
    m_Type: 0
    m_Resolution: -1
    m_CustomResolution: -1
    m_Strength: 1
    m_Bias: 0.05
    m_NormalBias: 0.4
    m_NearPlane: 0.2
  m_Cookie: {fileID: 0}
  m_DrawHalo: 0
  m_Flare: {fileID: 0}
  m_RenderMode: 0
  m_CullingMask:
    serializedVersion: 2
    m_Bits: 4294967295
  m_Lightmapping: 1
  m_AreaSize: {x: 1, y: 1}
  m_BounceIntensity: 1
  m_ColorTemperature: 6570
  m_UseColorTemperature: 0
  m_ShadowRadius: 0
  m_ShadowAngle: 0
--- !u!4 &165033935
Transform:
  m_ObjectHideFlags: 0
  m_PrefabParentObject: {fileID: 0}
  m_PrefabInternal: {fileID: 0}
  m_GameObject: {fileID: 165033933}
  m_LocalRotation: {x: 0.40821794, y: -0.23456973, z: 0.10938166, w: 0.8754261}
  m_LocalPosition: {x: 4.84, y: 6.91, z: -4.78}
  m_LocalScale: {x: 1, y: 1, z: 1}
  m_Children: []
  m_Father: {fileID: 0}
  m_RootOrder: 2
  m_LocalEulerAnglesHint: {x: 0, y: 0, z: 0}
--- !u!1 &235348496
GameObject:
  m_ObjectHideFlags: 0
  m_PrefabParentObject: {fileID: 0}
  m_PrefabInternal: {fileID: 0}
  serializedVersion: 5
  m_Component:
  - component: {fileID: 235348500}
  - component: {fileID: 235348499}
  - component: {fileID: 235348498}
  - component: {fileID: 235348497}
  m_Layer: 0
  m_Name: Quad
  m_TagString: Untagged
  m_Icon: {fileID: 0}
  m_NavMeshLayer: 0
  m_StaticEditorFlags: 0
  m_IsActive: 1
--- !u!23 &235348497
MeshRenderer:
  m_ObjectHideFlags: 0
  m_PrefabParentObject: {fileID: 0}
  m_PrefabInternal: {fileID: 0}
  m_GameObject: {fileID: 235348496}
  m_Enabled: 1
  m_CastShadows: 1
  m_ReceiveShadows: 1
  m_DynamicOccludee: 1
  m_MotionVectors: 1
  m_LightProbeUsage: 0
  m_ReflectionProbeUsage: 1
  m_Materials:
  - {fileID: 2100000, guid: 5cd419aa6977391489362ebf5af3a2fb, type: 2}
  m_StaticBatchInfo:
    firstSubMesh: 0
    subMeshCount: 0
  m_StaticBatchRoot: {fileID: 0}
  m_ProbeAnchor: {fileID: 0}
  m_LightProbeVolumeOverride: {fileID: 0}
  m_ScaleInLightmap: 1
  m_PreserveUVs: 0
  m_IgnoreNormalsForChartDetection: 0
  m_ImportantGI: 0
  m_StitchLightmapSeams: 0
  m_SelectedEditorRenderState: 3
  m_MinimumChartSize: 4
  m_AutoUVMaxDistance: 0.5
  m_AutoUVMaxAngle: 89
  m_LightmapParameters: {fileID: 0}
  m_SortingLayerID: 0
  m_SortingLayer: 0
  m_SortingOrder: 0
--- !u!64 &235348498
MeshCollider:
  m_ObjectHideFlags: 0
  m_PrefabParentObject: {fileID: 0}
  m_PrefabInternal: {fileID: 0}
  m_GameObject: {fileID: 235348496}
  m_Material: {fileID: 0}
  m_IsTrigger: 0
  m_Enabled: 1
  serializedVersion: 2
  m_Convex: 0
  m_InflateMesh: 0
  m_SkinWidth: 0.01
  m_Mesh: {fileID: 10210, guid: 0000000000000000e000000000000000, type: 0}
--- !u!33 &235348499
MeshFilter:
  m_ObjectHideFlags: 0
  m_PrefabParentObject: {fileID: 0}
  m_PrefabInternal: {fileID: 0}
  m_GameObject: {fileID: 235348496}
  m_Mesh: {fileID: 10210, guid: 0000000000000000e000000000000000, type: 0}
--- !u!4 &235348500
Transform:
  m_ObjectHideFlags: 0
  m_PrefabParentObject: {fileID: 0}
  m_PrefabInternal: {fileID: 0}
  m_GameObject: {fileID: 235348496}
  m_LocalRotation: {x: 0.7071068, y: 0, z: 0, w: 0.7071068}
  m_LocalPosition: {x: 0, y: 0, z: 0}
  m_LocalScale: {x: 10, y: 10, z: 1}
  m_Children: []
  m_Father: {fileID: 0}
  m_RootOrder: 1
  m_LocalEulerAnglesHint: {x: 0, y: 0, z: 0}
--- !u!1001 &297339680
Prefab:
  m_ObjectHideFlags: 0
  serializedVersion: 2
  m_Modification:
    m_TransformParent: {fileID: 412172821}
    m_Modifications:
    - target: {fileID: 404034, guid: 5473fca427691b14c8eb21a55ef60089, type: 2}
      propertyPath: m_LocalPosition.x
      value: -0
      objectReference: {fileID: 0}
    - target: {fileID: 404034, guid: 5473fca427691b14c8eb21a55ef60089, type: 2}
      propertyPath: m_LocalPosition.y
      value: .216000006
      objectReference: {fileID: 0}
    - target: {fileID: 404034, guid: 5473fca427691b14c8eb21a55ef60089, type: 2}
      propertyPath: m_LocalPosition.z
      value: .0850000009
      objectReference: {fileID: 0}
    - target: {fileID: 404034, guid: 5473fca427691b14c8eb21a55ef60089, type: 2}
      propertyPath: m_LocalRotation.x
      value: 1
      objectReference: {fileID: 0}
    - target: {fileID: 404034, guid: 5473fca427691b14c8eb21a55ef60089, type: 2}
      propertyPath: m_LocalRotation.y
      value: 0
      objectReference: {fileID: 0}
    - target: {fileID: 404034, guid: 5473fca427691b14c8eb21a55ef60089, type: 2}
      propertyPath: m_LocalRotation.z
      value: 0
      objectReference: {fileID: 0}
    - target: {fileID: 404034, guid: 5473fca427691b14c8eb21a55ef60089, type: 2}
      propertyPath: m_LocalRotation.w
      value: -4.37113883e-08
      objectReference: {fileID: 0}
    - target: {fileID: 404034, guid: 5473fca427691b14c8eb21a55ef60089, type: 2}
      propertyPath: m_RootOrder
      value: 0
      objectReference: {fileID: 0}
    m_RemovedComponents: []
  m_ParentPrefab: {fileID: 100100000, guid: 5473fca427691b14c8eb21a55ef60089, type: 2}
  m_RootGameObject: {fileID: 1788095238}
  m_IsPrefabParent: 0
--- !u!1 &311574901
GameObject:
  m_ObjectHideFlags: 0
  m_PrefabParentObject: {fileID: 100002, guid: fddeeac0ebed86c4cab4320764b5c227, type: 3}
  m_PrefabInternal: {fileID: 968047245}
  serializedVersion: 5
  m_Component:
  - component: {fileID: 311574902}
  - component: {fileID: 311574904}
  - component: {fileID: 311574903}
  m_Layer: 0
  m_Name: M4A1_Sopmod_Body
  m_TagString: Untagged
  m_Icon: {fileID: 0}
  m_NavMeshLayer: 0
  m_StaticEditorFlags: 0
  m_IsActive: 1
--- !u!4 &311574902
Transform:
  m_ObjectHideFlags: 0
  m_PrefabParentObject: {fileID: 400002, guid: fddeeac0ebed86c4cab4320764b5c227, type: 3}
  m_PrefabInternal: {fileID: 968047245}
  m_GameObject: {fileID: 311574901}
  m_LocalRotation: {x: -0.7071068, y: 0, z: -0, w: 0.7071068}
  m_LocalPosition: {x: -0.004141754, y: 0.09701186, z: 0.18623586}
  m_LocalScale: {x: 0.1772296, y: 0.1433636, z: 0.1433636}
  m_Children: []
  m_Father: {fileID: 412172821}
  m_RootOrder: 1
  m_LocalEulerAnglesHint: {x: 0, y: 0, z: 0}
--- !u!23 &311574903
MeshRenderer:
  m_ObjectHideFlags: 0
  m_PrefabParentObject: {fileID: 2300000, guid: fddeeac0ebed86c4cab4320764b5c227,
    type: 3}
  m_PrefabInternal: {fileID: 968047245}
  m_GameObject: {fileID: 311574901}
  m_Enabled: 1
  m_CastShadows: 1
  m_ReceiveShadows: 1
  m_DynamicOccludee: 1
  m_MotionVectors: 1
  m_LightProbeUsage: 1
  m_ReflectionProbeUsage: 1
  m_Materials:
  - {fileID: 2100000, guid: 78ab691430c4c3948bafc63e58d78702, type: 2}
  - {fileID: 2100000, guid: 4102c5ab0936046d4adfa130be4e62b0, type: 2}
  m_StaticBatchInfo:
    firstSubMesh: 0
    subMeshCount: 0
  m_StaticBatchRoot: {fileID: 0}
  m_ProbeAnchor: {fileID: 0}
  m_LightProbeVolumeOverride: {fileID: 0}
  m_ScaleInLightmap: 1
  m_PreserveUVs: 0
  m_IgnoreNormalsForChartDetection: 0
  m_ImportantGI: 0
  m_StitchLightmapSeams: 0
  m_SelectedEditorRenderState: 3
  m_MinimumChartSize: 4
  m_AutoUVMaxDistance: 0.5
  m_AutoUVMaxAngle: 89
  m_LightmapParameters: {fileID: 0}
  m_SortingLayerID: 0
  m_SortingLayer: 0
  m_SortingOrder: 0
--- !u!33 &311574904
MeshFilter:
  m_ObjectHideFlags: 0
  m_PrefabParentObject: {fileID: 3300000, guid: fddeeac0ebed86c4cab4320764b5c227,
    type: 3}
  m_PrefabInternal: {fileID: 968047245}
  m_GameObject: {fileID: 311574901}
  m_Mesh: {fileID: 4300004, guid: fddeeac0ebed86c4cab4320764b5c227, type: 3}
--- !u!1 &412172820
GameObject:
  m_ObjectHideFlags: 0
  m_PrefabParentObject: {fileID: 100000, guid: fddeeac0ebed86c4cab4320764b5c227, type: 3}
  m_PrefabInternal: {fileID: 968047245}
  serializedVersion: 5
  m_Component:
  - component: {fileID: 412172821}
  m_Layer: 0
  m_Name: M4A1 Sopmod
  m_TagString: Untagged
  m_Icon: {fileID: 0}
  m_NavMeshLayer: 0
  m_StaticEditorFlags: 0
  m_IsActive: 0
--- !u!4 &412172821
Transform:
  m_ObjectHideFlags: 0
  m_PrefabParentObject: {fileID: 400000, guid: fddeeac0ebed86c4cab4320764b5c227, type: 3}
  m_PrefabInternal: {fileID: 968047245}
  m_GameObject: {fileID: 412172820}
  m_LocalRotation: {x: 0.5, y: 0.5, z: 0.5, w: 0.5}
  m_LocalPosition: {x: 0.84, y: 0.29700005, z: 0.7460002}
  m_LocalScale: {x: 1, y: 1, z: 1}
  m_Children:
  - {fileID: 1788095239}
  - {fileID: 311574902}
  - {fileID: 844460769}
  - {fileID: 1706291514}
  m_Father: {fileID: 1237641368}
  m_RootOrder: 1
  m_LocalEulerAnglesHint: {x: 0, y: 0, z: 0}
--- !u!1 &576081001
GameObject:
  m_ObjectHideFlags: 0
  m_PrefabParentObject: {fileID: 0}
  m_PrefabInternal: {fileID: 0}
  serializedVersion: 5
  m_Component:
  - component: {fileID: 576081006}
  - component: {fileID: 576081005}
  - component: {fileID: 576081004}
  - component: {fileID: 576081003}
  - component: {fileID: 576081002}
  m_Layer: 0
  m_Name: Main Camera
  m_TagString: MainCamera
  m_Icon: {fileID: 0}
  m_NavMeshLayer: 0
  m_StaticEditorFlags: 0
  m_IsActive: 1
--- !u!81 &576081002
AudioListener:
  m_ObjectHideFlags: 0
  m_PrefabParentObject: {fileID: 0}
  m_PrefabInternal: {fileID: 0}
  m_GameObject: {fileID: 576081001}
  m_Enabled: 1
--- !u!124 &576081003
Behaviour:
  m_ObjectHideFlags: 0
  m_PrefabParentObject: {fileID: 0}
  m_PrefabInternal: {fileID: 0}
  m_GameObject: {fileID: 576081001}
  m_Enabled: 1
--- !u!92 &576081004
Behaviour:
  m_ObjectHideFlags: 0
  m_PrefabParentObject: {fileID: 0}
  m_PrefabInternal: {fileID: 0}
  m_GameObject: {fileID: 576081001}
  m_Enabled: 1
--- !u!20 &576081005
Camera:
  m_ObjectHideFlags: 0
  m_PrefabParentObject: {fileID: 0}
  m_PrefabInternal: {fileID: 0}
  m_GameObject: {fileID: 576081001}
  m_Enabled: 1
  serializedVersion: 2
  m_ClearFlags: 1
  m_BackGroundColor: {r: 0.19215687, g: 0.3019608, b: 0.4745098, a: 0.019607844}
  m_NormalizedViewPortRect:
    serializedVersion: 2
    x: 0
    y: 0
    width: 1
    height: 1
  near clip plane: 0.3
  far clip plane: 1000
  field of view: 60
  orthographic: 0
  orthographic size: 5
  m_Depth: -1
  m_CullingMask:
    serializedVersion: 2
    m_Bits: 4294967295
  m_RenderingPath: -1
  m_TargetTexture: {fileID: 0}
  m_TargetDisplay: 0
  m_TargetEye: 3
  m_HDR: 0
  m_AllowMSAA: 1
  m_ForceIntoRT: 0
  m_OcclusionCulling: 1
  m_StereoConvergence: 10
  m_StereoSeparation: 0.022
--- !u!4 &576081006
Transform:
  m_ObjectHideFlags: 0
  m_PrefabParentObject: {fileID: 0}
  m_PrefabInternal: {fileID: 0}
  m_GameObject: {fileID: 576081001}
  m_LocalRotation: {x: 0.24578644, y: 0, z: 0, w: 0.96932405}
  m_LocalPosition: {x: 0, y: 3.21, z: -4.341}
  m_LocalScale: {x: 1, y: 1, z: 1}
  m_Children: []
  m_Father: {fileID: 0}
  m_RootOrder: 0
  m_LocalEulerAnglesHint: {x: 0, y: 0, z: 0}
--- !u!1 &844460768
GameObject:
  m_ObjectHideFlags: 0
  m_PrefabParentObject: {fileID: 100004, guid: fddeeac0ebed86c4cab4320764b5c227, type: 3}
  m_PrefabInternal: {fileID: 968047245}
  serializedVersion: 5
  m_Component:
  - component: {fileID: 844460769}
  - component: {fileID: 844460771}
  - component: {fileID: 844460770}
  m_Layer: 0
  m_Name: M4A1_Sopmod_Iron_Sight
  m_TagString: Untagged
  m_Icon: {fileID: 0}
  m_NavMeshLayer: 0
  m_StaticEditorFlags: 0
  m_IsActive: 1
--- !u!4 &844460769
Transform:
  m_ObjectHideFlags: 0
  m_PrefabParentObject: {fileID: 400004, guid: fddeeac0ebed86c4cab4320764b5c227, type: 3}
  m_PrefabInternal: {fileID: 968047245}
  m_GameObject: {fileID: 844460768}
  m_LocalRotation: {x: -0.7071068, y: 0, z: -0, w: 0.7071068}
  m_LocalPosition: {x: 0.000000008253216, y: 0.17831543, z: 0.26443455}
  m_LocalScale: {x: 0.0994549, y: 0.06844006, z: 0.06844006}
  m_Children: []
  m_Father: {fileID: 412172821}
  m_RootOrder: 2
  m_LocalEulerAnglesHint: {x: 0, y: 0, z: 0}
--- !u!23 &844460770
MeshRenderer:
  m_ObjectHideFlags: 0
  m_PrefabParentObject: {fileID: 2300002, guid: fddeeac0ebed86c4cab4320764b5c227,
    type: 3}
  m_PrefabInternal: {fileID: 968047245}
  m_GameObject: {fileID: 844460768}
  m_Enabled: 1
  m_CastShadows: 1
  m_ReceiveShadows: 1
  m_DynamicOccludee: 1
  m_MotionVectors: 1
  m_LightProbeUsage: 1
  m_ReflectionProbeUsage: 1
  m_Materials:
  - {fileID: 2100000, guid: 66a57e73664f8414da4ecb667a9ad401, type: 2}
  m_StaticBatchInfo:
    firstSubMesh: 0
    subMeshCount: 0
  m_StaticBatchRoot: {fileID: 0}
  m_ProbeAnchor: {fileID: 0}
  m_LightProbeVolumeOverride: {fileID: 0}
  m_ScaleInLightmap: 1
  m_PreserveUVs: 0
  m_IgnoreNormalsForChartDetection: 0
  m_ImportantGI: 0
  m_StitchLightmapSeams: 0
  m_SelectedEditorRenderState: 3
  m_MinimumChartSize: 4
  m_AutoUVMaxDistance: 0.5
  m_AutoUVMaxAngle: 89
  m_LightmapParameters: {fileID: 0}
  m_SortingLayerID: 0
  m_SortingLayer: 0
  m_SortingOrder: 0
--- !u!33 &844460771
MeshFilter:
  m_ObjectHideFlags: 0
  m_PrefabParentObject: {fileID: 3300002, guid: fddeeac0ebed86c4cab4320764b5c227,
    type: 3}
  m_PrefabInternal: {fileID: 968047245}
  m_GameObject: {fileID: 844460768}
  m_Mesh: {fileID: 4300002, guid: fddeeac0ebed86c4cab4320764b5c227, type: 3}
--- !u!1001 &968047245
Prefab:
  m_ObjectHideFlags: 0
  serializedVersion: 2
  m_Modification:
    m_TransformParent: {fileID: 1237641368}
    m_Modifications:
    - target: {fileID: 400000, guid: fddeeac0ebed86c4cab4320764b5c227, type: 3}
      propertyPath: m_LocalPosition.x
      value: .839999974
      objectReference: {fileID: 0}
    - target: {fileID: 400000, guid: fddeeac0ebed86c4cab4320764b5c227, type: 3}
      propertyPath: m_LocalPosition.y
      value: .297000051
      objectReference: {fileID: 0}
    - target: {fileID: 400000, guid: fddeeac0ebed86c4cab4320764b5c227, type: 3}
      propertyPath: m_LocalPosition.z
      value: .746000171
      objectReference: {fileID: 0}
    - target: {fileID: 400000, guid: fddeeac0ebed86c4cab4320764b5c227, type: 3}
      propertyPath: m_LocalRotation.x
      value: .5
      objectReference: {fileID: 0}
    - target: {fileID: 400000, guid: fddeeac0ebed86c4cab4320764b5c227, type: 3}
      propertyPath: m_LocalRotation.y
      value: .5
      objectReference: {fileID: 0}
    - target: {fileID: 400000, guid: fddeeac0ebed86c4cab4320764b5c227, type: 3}
      propertyPath: m_LocalRotation.z
      value: .5
      objectReference: {fileID: 0}
    - target: {fileID: 400000, guid: fddeeac0ebed86c4cab4320764b5c227, type: 3}
      propertyPath: m_LocalRotation.w
      value: .5
      objectReference: {fileID: 0}
    - target: {fileID: 400000, guid: fddeeac0ebed86c4cab4320764b5c227, type: 3}
      propertyPath: m_RootOrder
      value: 1
      objectReference: {fileID: 0}
    - target: {fileID: 100000, guid: fddeeac0ebed86c4cab4320764b5c227, type: 3}
      propertyPath: m_IsActive
      value: 0
      objectReference: {fileID: 0}
    - target: {fileID: 400002, guid: fddeeac0ebed86c4cab4320764b5c227, type: 3}
      propertyPath: m_RootOrder
      value: 1
      objectReference: {fileID: 0}
    - target: {fileID: 400004, guid: fddeeac0ebed86c4cab4320764b5c227, type: 3}
      propertyPath: m_RootOrder
      value: 2
      objectReference: {fileID: 0}
    - target: {fileID: 400006, guid: fddeeac0ebed86c4cab4320764b5c227, type: 3}
      propertyPath: m_RootOrder
      value: 3
      objectReference: {fileID: 0}
    m_RemovedComponents: []
  m_ParentPrefab: {fileID: 100100000, guid: fddeeac0ebed86c4cab4320764b5c227, type: 3}
  m_RootGameObject: {fileID: 412172820}
  m_IsPrefabParent: 0
--- !u!1 &1237641367
GameObject:
  m_ObjectHideFlags: 0
  m_PrefabParentObject: {fileID: 0}
  m_PrefabInternal: {fileID: 0}
  serializedVersion: 5
  m_Component:
  - component: {fileID: 1237641368}
  m_Layer: 0
  m_Name: Pivot
  m_TagString: Untagged
  m_Icon: {fileID: 0}
  m_NavMeshLayer: 0
  m_StaticEditorFlags: 0
  m_IsActive: 1
--- !u!4 &1237641368
Transform:
  m_ObjectHideFlags: 0
  m_PrefabParentObject: {fileID: 0}
  m_PrefabInternal: {fileID: 0}
  m_GameObject: {fileID: 1237641367}
  m_LocalRotation: {x: 0.000000014419291, y: -0.000000047419697, z: 0.34326681, w: 0.93923795}
  m_LocalPosition: {x: 0.418, y: 1.003, z: 0.66}
  m_LocalScale: {x: 1, y: 1, z: 1}
  m_Children:
  - {fileID: 78034}
  - {fileID: 412172821}
  m_Father: {fileID: 51790521}
  m_RootOrder: 0
  m_LocalEulerAnglesHint: {x: 0, y: 0, z: 0}
--- !u!1 &1706291513
GameObject:
  m_ObjectHideFlags: 0
  m_PrefabParentObject: {fileID: 100006, guid: fddeeac0ebed86c4cab4320764b5c227, type: 3}
  m_PrefabInternal: {fileID: 968047245}
  serializedVersion: 5
  m_Component:
  - component: {fileID: 1706291514}
  - component: {fileID: 1706291516}
  - component: {fileID: 1706291515}
  m_Layer: 0
  m_Name: M4A1_Sopmod_Magazine
  m_TagString: Untagged
  m_Icon: {fileID: 0}
  m_NavMeshLayer: 0
  m_StaticEditorFlags: 0
  m_IsActive: 1
--- !u!4 &1706291514
Transform:
  m_ObjectHideFlags: 0
  m_PrefabParentObject: {fileID: 400006, guid: fddeeac0ebed86c4cab4320764b5c227, type: 3}
  m_PrefabInternal: {fileID: 968047245}
  m_GameObject: {fileID: 1706291513}
  m_LocalRotation: {x: -0.7071068, y: 0, z: -0, w: 0.7071068}
  m_LocalPosition: {x: -0, y: -0.041666415, z: 0.1096273}
  m_LocalScale: {x: 0.11890548, y: 0.13605945, z: 0.14907089}
  m_Children: []
  m_Father: {fileID: 412172821}
  m_RootOrder: 3
  m_LocalEulerAnglesHint: {x: 0, y: 0, z: 0}
--- !u!23 &1706291515
MeshRenderer:
  m_ObjectHideFlags: 0
  m_PrefabParentObject: {fileID: 2300004, guid: fddeeac0ebed86c4cab4320764b5c227,
    type: 3}
  m_PrefabInternal: {fileID: 968047245}
  m_GameObject: {fileID: 1706291513}
  m_Enabled: 1
  m_CastShadows: 1
  m_ReceiveShadows: 1
  m_DynamicOccludee: 1
  m_MotionVectors: 1
  m_LightProbeUsage: 1
  m_ReflectionProbeUsage: 1
  m_Materials:
  - {fileID: 2100000, guid: 3603147297ee54a4d8d203e1d6e518e2, type: 2}
  m_StaticBatchInfo:
    firstSubMesh: 0
    subMeshCount: 0
  m_StaticBatchRoot: {fileID: 0}
  m_ProbeAnchor: {fileID: 0}
  m_LightProbeVolumeOverride: {fileID: 0}
  m_ScaleInLightmap: 1
  m_PreserveUVs: 0
  m_IgnoreNormalsForChartDetection: 0
  m_ImportantGI: 0
  m_StitchLightmapSeams: 0
  m_SelectedEditorRenderState: 3
  m_MinimumChartSize: 4
  m_AutoUVMaxDistance: 0.5
  m_AutoUVMaxAngle: 89
  m_LightmapParameters: {fileID: 0}
  m_SortingLayerID: 0
  m_SortingLayer: 0
  m_SortingOrder: 0
--- !u!33 &1706291516
MeshFilter:
  m_ObjectHideFlags: 0
  m_PrefabParentObject: {fileID: 3300004, guid: fddeeac0ebed86c4cab4320764b5c227,
    type: 3}
  m_PrefabInternal: {fileID: 968047245}
  m_GameObject: {fileID: 1706291513}
  m_Mesh: {fileID: 4300000, guid: fddeeac0ebed86c4cab4320764b5c227, type: 3}
--- !u!1 &1788095238
GameObject:
  m_ObjectHideFlags: 0
  m_PrefabParentObject: {fileID: 104034, guid: 5473fca427691b14c8eb21a55ef60089, type: 2}
  m_PrefabInternal: {fileID: 297339680}
  serializedVersion: 5
  m_Component:
  - component: {fileID: 1788095239}
  - component: {fileID: 1788095240}
  m_Layer: 0
  m_Name: Lazer
  m_TagString: Untagged
  m_Icon: {fileID: 0}
  m_NavMeshLayer: 0
  m_StaticEditorFlags: 0
  m_IsActive: 1
--- !u!4 &1788095239
Transform:
  m_ObjectHideFlags: 0
  m_PrefabParentObject: {fileID: 404034, guid: 5473fca427691b14c8eb21a55ef60089, type: 2}
  m_PrefabInternal: {fileID: 297339680}
  m_GameObject: {fileID: 1788095238}
  m_LocalRotation: {x: 1, y: 0, z: 0, w: -0.00000004371139}
  m_LocalPosition: {x: -0, y: 0.216, z: 0.085}
  m_LocalScale: {x: 1, y: 1, z: 1}
  m_Children: []
  m_Father: {fileID: 412172821}
  m_RootOrder: 0
  m_LocalEulerAnglesHint: {x: 0, y: 0, z: 0}
--- !u!120 &1788095240
LineRenderer:
  m_ObjectHideFlags: 0
  m_PrefabParentObject: {fileID: 12004034, guid: 5473fca427691b14c8eb21a55ef60089,
    type: 2}
  m_PrefabInternal: {fileID: 297339680}
  m_GameObject: {fileID: 1788095238}
  m_Enabled: 1
  m_CastShadows: 1
  m_ReceiveShadows: 1
  m_DynamicOccludee: 1
  m_MotionVectors: 0
  m_LightProbeUsage: 0
  m_ReflectionProbeUsage: 0
  m_Materials:
  - {fileID: 2100000, guid: 53586824c75022c4c96eb5ab2d9686a7, type: 2}
  m_StaticBatchInfo:
    firstSubMesh: 0
    subMeshCount: 0
  m_StaticBatchRoot: {fileID: 0}
  m_ProbeAnchor: {fileID: 0}
  m_LightProbeVolumeOverride: {fileID: 0}
  m_ScaleInLightmap: 1
  m_PreserveUVs: 0
  m_IgnoreNormalsForChartDetection: 0
  m_ImportantGI: 0
  m_StitchLightmapSeams: 0
  m_SelectedEditorRenderState: 3
  m_MinimumChartSize: 4
  m_AutoUVMaxDistance: 0.5
  m_AutoUVMaxAngle: 89
  m_LightmapParameters: {fileID: 0}
  m_SortingLayerID: 0
  m_SortingLayer: 0
  m_SortingOrder: 0
  m_Positions:
  - {x: 0, y: 0, z: 0}
  - {x: 0, y: 0, z: 200}
  m_Parameters:
    serializedVersion: 2
    widthMultiplier: 1
    widthCurve:
      serializedVersion: 2
      m_Curve:
      - serializedVersion: 2
        time: 0
        value: 0.03
        inSlope: 0
        outSlope: 0
        tangentMode: 0
      - serializedVersion: 2
        time: 1
        value: 0.03
        inSlope: 0
        outSlope: 0
        tangentMode: 0
      m_PreInfinity: 2
      m_PostInfinity: 2
      m_RotationOrder: 4
    colorGradient:
      serializedVersion: 2
      key0: {r: 1, g: 1, b: 1, a: 1}
      key1: {r: 1, g: 1, b: 1, a: 1}
      key2: {r: 0, g: 0, b: 0, a: 0}
      key3: {r: 0, g: 0, b: 0, a: 0}
      key4: {r: 0, g: 0, b: 0, a: 0}
      key5: {r: 0, g: 0, b: 0, a: 0}
      key6: {r: 0, g: 0, b: 0, a: 0}
      key7: {r: 0, g: 0, b: 0, a: 0}
      ctime0: 0
      ctime1: 65535
      ctime2: 0
      ctime3: 0
      ctime4: 0
      ctime5: 0
      ctime6: 0
      ctime7: 0
      atime0: 0
      atime1: 65535
      atime2: 0
      atime3: 0
      atime4: 0
      atime5: 0
      atime6: 0
      atime7: 0
      m_Mode: 0
      m_NumColorKeys: 2
      m_NumAlphaKeys: 2
    numCornerVertices: 0
    numCapVertices: 0
    alignment: 0
    textureMode: 0
    generateLightingData: 0
  m_UseWorldSpace: 0
  m_Loop: 0
